Next steps
…
]

---

# Web scraping with <mono>rvest</mono> <img src="https://github.com/rstudio/hex-stickers/raw/master/PNG/rvest.png" height=60px />

```r
# load table from Wikipedia
read_html("https://en.wikipedia.org/wiki/R_(programming_language)") %>%
  html_node(xpath = '//*[@id="mw-content-text"]/div[1]/table[2]') %>%
  html_table() %>% as_tibble()
```

```
## # A tibble: 23 × 3
##    Release Date         Description                                                       
##    <chr>   <chr>        <chr>                                                             
##  1 0.16    ""           "This is the last alpha version developed primarily by Ihaka and …
##  2 0.49    "1997-04-23" "This is the oldest source release which is currently available o…
##  3 0.60    "1997-12-05" "R becomes an official part of the GNU Project. The code is hoste…
##  4 0.65.1  "1999-10-07" "First versions of update.packages and install.packages functions…
##  5 1.0     "2000-02-29" "Considered by its developers stable enough for production use.[6…
##  6 1.4     "2001-12-19" "S4 methods are introduced and the first version for Mac OS X is …
##  7 1.8     "2003-10-08" "Introduced a flexible condition handling mechanism for signallin…
##  8 2.0     "2004-10-04" "Introduced lazy loading, which enables fast loading of data with…
##  9 2.1     "2005-04-18" "Support for UTF-8 encoding, and the beginnings of internationali…
## 10 2.6.2   "2008-02-08" "Last version to support Windows 95, 98, Me and NT 4.0[66]"       
## # … with 13 more rows
```
…
